[
  {
      "title": "next_month",
      "description": "task identified for completion next month",
      "color": "#bf0079",
      "priority": 2
  },
  {
      "title": "this_month",
      "description": "task identified for completion this month",
      "color": "#b900bf",
      "priority": 1
  },
  {
      "title": "this_week",
      "description": "task identified for completion this week",
      "color": "#8300bf",
      "priority": 0
  },
  {
    "title": "doing",
    "description": "task currently in progress",
    "color": "#0099ff",
    "priority": null
},
{
    "title": "uncertainity: high",
    "description": "task has a high degree of uncertainity",
    "color": "#ff00d0",
    "priority": null
},
{
    "title": "uncertainity: moderate",
    "description": "task has a moderate degree of uncertainity",
    "color": "#ff00d0",
    "priority": null
},
{
    "title": "type: A1",
    "description": "Implement math / physics-based model",
    "color": "#ffe044",
    "priority": null
},
{
    "title": "type: A2",
    "description": "Undertake sizing calculations / system level analysis",
    "color": "#ffe044",
    "priority": null
},
{
    "title": "type: A3",
    "description": "Create conceptual 3D models (Product / Test set-up)",
    "color": "#ffe044",
    "priority": null
},
{
    "title": "type: A4",
    "description": "Prepare design documents (Concept, PDR, DDR, CDR)",
    "color": "#ffe044",
    "priority": null
},
{
    "title": "type: A5",
    "description": "Undertake reliability & safety analysis",
    "color": "#ffe044",
    "priority": null
},
{
    "title": "type: A6",
    "description": "Prepare ATP & QTP and user + installation manual",
    "color": "#ffe044",
    "priority": null
},
{
    "title": "type: B1",
    "description": "Prepare simulation methodology report for approval",
    "color": "#ffb944",
    "priority": null
},
{
    "title": "type: B2",
    "description": "Pre-process geometry (create, clean-up & MESH)",
    "color": "#ffb944",
    "priority": null
},
{
    "title": "type: B3",
    "description": "Perform CAE simulation (setup & monitor)",
    "color": "#ffb944",
    "priority": null
},
{
    "title": "type: B4",
    "description": "Prepare analysis report (PPT or word)",
    "color": "#ffb944",
    "priority": null
},
{
    "title": "type: B5",
    "description": "Create automation script or UDF",
    "color": "#ffb944",
    "priority": null
},
{
    "title": "type: C1",
    "description": "Undertake sizing calculations / hardware selections",
    "color": "#ff7f44",
    "priority": null
},
{
    "title": "type: C2",
    "description": "Prepare GA / part level manufacturing dwgs with GD&T",
    "color": "#ff7f44",
    "priority": null
},
{
    "title": "type: C3",
    "description": "Design assembly process & tolerance stack up analysis",
    "color": "#ff7f44",
    "priority": null
},
{
    "title": "type: C4",
    "description": "Prepare BoM, spare list & maintenance manual",
    "color": "#ff7f44",
    "priority": null
},
{
    "title": "type: C5",
    "description": "Prepare process sheets",
    "color": "#ff7f44",
    "priority": null
},
{
    "title": "type: C6",
    "description": "Prepare QAP documents",
    "color": "#ff7f44",
    "priority": null
},
{
    "title": "type: D1",
    "description": "Prepare software design document & software test plan",
    "color": "#fff844",
    "priority": null
},
{
    "title": "type: D2",
    "description": "Prepare wireframes & GUI design",
    "color": "#fff844",
    "priority": null
},
{
    "title": "type: D3",
    "description": "Write or debug source code",
    "color": "#fff844",
    "priority": null
},
{
    "title": "type: D4",
    "description": "Undertake unit tests & prepare unit test report",
    "color": "#fff844",
    "priority": null
},
{
    "title": "type: D5",
    "description": "Prepare user & installation manual",
    "color": "#fff844",
    "priority": null
},
{
    "title": "type: D6",
    "description": "Configure & release software",
    "color": "#fff844",
    "priority": null
},
{
    "title": "type: E1",
    "description": "Examine & verify records as per ISO guidelines",
    "color": "#e3ff44",
    "priority": null
},
{
    "title": "type: E2",
    "description": "Monitor manufacturing status & QAP driven quality checks.",
    "color": "#e3ff44",
    "priority": null
},
{
    "title": "type: E3",
    "description": "Assemble & integrate hardware products & test setups",
    "color": "#e3ff44",
    "priority": null
},
{
    "title": "type: E4",
    "description": "Perform software & hardware tests & prepare STR, ATR & QTR",
    "color": "#e3ff44",
    "priority": null
},
{
    "title": "type: F1",
    "description": "Customer communication for schedule updates & change management",
    "color": "#aeff44",
    "priority": null
},
{
    "title": "type: F2",
    "description": "Prepare PRD / SRS / VCRM & Traceability Matrix for compliance",
    "color": "#aeff44",
    "priority": null
},
{
    "title": "type: F3",
    "description": "Prepare, update & manage execution plan",
    "color": "#aeff44",
    "priority": null
},
{
    "title": "type: F4",
    "description": "Identify, shortlist, select & co-ordinate with vendors & partners",
    "color": "#aeff44",
    "priority": null
},
{
    "title": "type: F5",
    "description": "Release requirements on team, training, infra & tool",
    "color": "#aeff44",
    "priority": null
},
{
    "title": "type: F6",
    "description": "Onsite customer tasks as per work-package",
    "color": "#aeff44",
    "priority": null
},
{
    "title": "type: Z1",
    "description": "Review literature or study training / ref. document",
    "color": "#d544ff",
    "priority": null
},
{
    "title": "type: Z2",
    "description": "Customer & internal technical review",
    "color": "#d544ff",
    "priority": null
},
{
    "title": "type: Z3",
    "description": "Visit to client, partner or vendor",
    "color": "#d544ff",
    "priority": null
},
{
    "title": "type: Z4",
    "description": "Study or review project documents",
    "color": "#d544ff",
    "priority": null
}
]
